digraph G {
    fontname = "Bitstream Vera Sans"
    fontsize = 8

    overlap=false;

    compound=true;    
    
    node [
        fontname = "Bitstream Vera Sans"
        fontsize = 8
        shape = "record"
    ]

    edge [
        fontname = "Bitstream Vera Sans"
        fontsize = 8
        mode="ipsep"            
    ]
      
    
        
                
    DDI4_Universe [
        label = "{<id>Universe | + isInclusive : xs:boolean \l  \l  \l| <UniversehasSubuniverse> hasSubuniverse \l \l}"
    
                tooltip = "Conceptual:Universe"
    ]
    
            
  
    
        
    subgraph Conceptual {
        label = "Conceptual"    
        
        node [ color = "#218559" ]
 
                
        DDI4_Universe [
        
            label = "{<id>Universe | + isInclusive : xs:boolean \l  \l  \l| <UniversehasSubuniverse> hasSubuniverse \l \l}"
        
                        tooltip = "Conceptual:Universe"
        ];
        
                        
        DDI4_UnitType [
        
            label = "{<id>UnitType |  \l  \l| <UnitTypehasInstance> hasInstance \l \l}"
        
                        tooltip = "Conceptual:UnitType"
        ];
        
                    
    
    }
    
    
                    
    DDI4_Universe -> DDI4_UnitType [arrowhead=empty color="#000000" ];
    
        
        
    	DDI4_Universe -> DDI4_Universe:UniversehasSubuniverse [side=r arrowhead=diamond labeldistance=1.9 taillabel="0..n" headlabel="1..1"  edgetooltip="hasSubuniverse" fontcolor="black" color="#00000"];
    
       
                  
}