digraph G {
    fontname = "Bitstream Vera Sans"
    fontsize = 8

    overlap=false;

    compound=true;    
    
    node [
        fontname = "Bitstream Vera Sans"
        fontsize = 8
        shape = "record"
    ]

    edge [
        fontname = "Bitstream Vera Sans"
        fontsize = 8
        mode="ipsep"            
    ]
      
    
        
                
    DDI4_CommandFile [
        label = "{<id>CommandFile | + programLanguage : CodeValueType \l + location : InternationalString \l + uri : xs:anyURI \l  \l \l|  \l \l}"
    
                tooltip = "Processing:CommandFile"
    ]
    
            
  
    
        
    subgraph Identification {
        label = "Identification"    
        
        node [ color = "#000000" ]
 
                
        DDI4_AnnotatedIdentifiable [
        
            label = "{<id>AnnotatedIdentifiable | + versionResponsibility : xs:string \l + versionRationale : xs:string \l + versionDate : xs:dateTime \l + isUniversallyUnique : xs:boolean \l + isPersistent : xs:boolean \l + localId : LocalId \l + basedOnObject : BasedOnObject \l  \l  \l| <AnnotatedIdentifiablehasAnnotation> hasAnnotation \l \l}"
        
                        tooltip = "Identification:AnnotatedIdentifiable"
        ];
        
                    
    
    }
    
    
                    
    DDI4_CommandFile -> DDI4_AnnotatedIdentifiable [arrowhead=empty color="#000000" ];
    
        
       
                  
}