digraph G {
    fontname = "Bitstream Vera Sans"
    fontsize = 8

    overlap=false;

    compound=true;    
    
    node [
        fontname = "Bitstream Vera Sans"
        fontsize = 8
        shape = "record"
    ]

    edge [
        fontname = "Bitstream Vera Sans"
        fontsize = 8
        mode="ipsep"            
    ]
      
    
        
                
    DDI4_Binding [
        label = "{<id>Binding | + sourceParameter : xs:string \l + targetParameter : xs:string \l  \l \l|  \l \l}"
    
                tooltip = "CoreProcess:Binding"
    ]
    
            
  
    
        
    subgraph  {
        label = ""    
        
        node [ color = "#" ]
 
                            
    
    }
    
    
                    
       
                  
}