digraph G {
    fontname = "Bitstream Vera Sans"
    fontsize = 8

    overlap=false;

    compound=true;    
    
    node [
        fontname = "Bitstream Vera Sans"
        fontsize = 8
        shape = "record"
    ]

    edge [
        fontname = "Bitstream Vera Sans"
        fontsize = 8
        mode="ipsep"            
    ]
      
    
        
                
    DDI4_Label [
        label = "{<id>Label | + locationVariant : xs:string \l + validForStartDate : Date \l + validForEndDate : Date \l + maxLength : xs:integer \l  \l \l|  \l \l}"
    
                tooltip = "ComplexDataTypes:Label"
    ]
    
            
  
    
        
    subgraph ComplexDataTypes {
        label = "ComplexDataTypes"    
        
        node [ color = "#000000" ]
 
                
        DDI4_StructuredString [
        
            label = "{<id>StructuredString | + content : Content \l  \l \l|  \l \l}"
        
                        tooltip = "ComplexDataTypes:StructuredString"
        ];
        
                    
    
    }
    
    
                    
    DDI4_Label -> DDI4_StructuredString [arrowhead=empty color="#000000" ];
    
        
       
                  
}