digraph G {
    fontname = "Bitstream Vera Sans"
    fontsize = 8

    overlap=false;

    compound=true;    
    
    node [
        fontname = "Bitstream Vera Sans"
        fontsize = 8
        shape = "record"
    ]

    edge [
        fontname = "Bitstream Vera Sans"
        fontsize = 8
        mode="ipsep"            
    ]
      
    
        
                
    DDI4_LiteralText [
        label = "{<id>LiteralText | + text : Text \l  \l \l|  \l \l}"
    
                tooltip = "ComplexDataTypes:LiteralText"
    ]
    
            
  
    
        
    subgraph ComplexDataTypes {
        label = "ComplexDataTypes"    
        
        node [ color = "#000000" ]
 
                
        DDI4_TextContent [
        
            label = "{<id>TextContent | + description : StructuredString \l  \l \l|  \l \l}"
        
                        tooltip = "ComplexDataTypes:TextContent"
        ];
        
                    
    
    }
    
    
                    
    DDI4_LiteralText -> DDI4_TextContent [arrowhead=empty color="#000000" ];
    
        
       
                  
}