digraph G {
    fontname = "Bitstream Vera Sans"
    fontsize = 8

    overlap=false;

    compound=true;    
    
    node [
        fontname = "Bitstream Vera Sans"
        fontsize = 8
        shape = "record"
    ]

    edge [
        fontname = "Bitstream Vera Sans"
        fontsize = 8
        mode="ipsep"            
    ]
      
    
        
                
    DDI4_SpecificSequence [
        label = "{<id>SpecificSequence | + itemSequence : ItemSequence \l + alternateSequence : CommandCode \l  \l \l|  \l \l}"
    
                tooltip = "ComplexDataTypes:SpecificSequence"
    ]
    
            
  
    
        
    subgraph  {
        label = ""    
        
        node [ color = "#" ]
 
                            
    
    }
    
    
                    
       
                  
}